FinalProject
…
breaches_by_date <- both %>%
  group_by(Date_of_Breach)
  #summarise(Individuals_Affected_in_mil = sum(Individuals_Affected))
breaches_by_date

## Source: local data frame [243 x 14]
## Groups: Date_of_Breach [218]
## 
##       X1 Number                 Name_of_Covered_Entity State
##    <int>  <int>                                  <chr> <chr>
## 1      5      4               L. Douglas Carlson, M.D.    CA
## 2      6      5                     David I. Cohen, MD    CA
## 3      7      6                Michele Del Vicario, MD    CA
## 4      8      7                    Joseph F. Lopez, MD    CA
## 5      9      8                      Mark D. Lurie, MD    CA
## 6     10      9   City of Hope National Medical Center    CA
## 7     14     13                    Kern Medical Center    CA
## 8     23     22 Kaiser Permanente Medical Care Program    CA
## 9     24     23      Blue Island Radiology Consultants    IL
## 10    29     28                   Advocate Health Care    IL
## # ... with 233 more rows, and 10 more variables:
## #   Business_Associate_Involved <chr>, Individuals_Affected <int>,
## #   Date_of_Breach <chr>, Type_of_Breach <chr>,
## #   Location_of_Breached_Information <chr>, Date_Posted_or_Updated <date>,
## #   Summary <chr>, breach_start <date>, breach_end <date>, year <int>
…
